6 Data Visualizations | _main.utf8.md
…
6.5 Using the compute functions

Use the db_compute_raster() function to get the underlying results that feed the plot

locations <- orders %>%
  db_compute_raster2(customer_lon, customer_lat, resolution = 10)

Preview the locations variable

locations

## # A tibble: 58 x 5
##    customer_lon customer_lat `n()` customer_lon_2 customer_lat_2
##           <dbl>        <dbl> <dbl>          <dbl>          <dbl>
##  1        -122.         37.8  1013          -122.           37.8
##  2        -122.         37.7  2325          -122.           37.8
##  3        -122.         37.8  1004          -122.           37.8
##  4        -122.         37.8  1194          -122.           37.8
##  5        -122.         37.8  3313          -122.           37.8
##  6        -122.         37.8  2220          -122.           37.8
##  7        -122.         37.7  1120          -122.           37.7
##  8        -122.         37.7  2137          -122.           37.7
##  9        -122.         37.8  1081          -122.           37.8
## 10        -122.         37.8  1017          -122.           37.8
## # … with 48 more rows
…
