7 Modeling with databases | _main.utf8.md
…
Assign the previous code to a variable called parsnip_model

parsnip_model <- linear_reg() %>%
  set_engine("lm") %>%
  fit(order_total ~ order_qty, data = orders_sample)

Use bind_cols() to add the predictions to order_sample. Calculate the prediction with predict()

orders_sample %>% 
  bind_cols(predict(parsnip_model, orders_sample))

## # A tibble: 101 x 13
##    order_id customer_id.x step_id date       date_year date_month customer_id.y customer_name            customer_lon customer_lat order_total order_qty .pred
##       <int>         <int>   <dbl> <chr>          <int>      <int>         <int> <chr>                           <dbl>        <dbl>       <dbl>     <int> <dbl>
##  1     8734            87       8 2016-01-08      2016          1            87 Lasonya Bailey-Langworth        -122.         37.8        5.21         1  6.21
##  2    24398            60      24 2016-01-24      2016          1            60 Jonas Abshire                   -122.         37.8       32.0          4 27.4 
##  3    32103            73      32 2016-02-01      2016          2            73 Merlyn Runolfsson               -122.         37.7       20.9          3 20.4 
##  4    32158            80      32 2016-02-01      2016          2            80 Jessee Rodriguez Jr.            -122.         37.7        8.34         1  6.21
##  5    42123            61      42 2016-02-11      2016          2            61 Cedric O'Kon-Wisoky             -122.         37.8       14.9          2 13.3 
##  6    46478            42      46 2016-02-15      2016          2            42 Rodolfo Denesik                 -122.         37.8       18.4          3 20.4 
##  7    50895            16      50 2016-02-19      2016          2            16 Mordechai Schultz               -122.         37.7       26.2          4 27.4 
##  8    64366            26      64 2016-03-04      2016          3            26 Lura Koepp                      -122.         37.7       25.0          4 27.4 
##  9    67620            72      67 2016-03-07      2016          3            72 Eduardo Bins                    -122.         37.8       21.6          3 20.4 
## 10    69842            43      69 2016-03-09      2016          3            43 Chadrick Konopelski             -122.         37.7       26.0          3 20.4 
## # … with 91 more rows
…
